<?xml version="1.0" encoding="UTF-8"?>
<svg width="123px" height="25px" viewBox="0 0 123 25" version="1.1" xmlns="http://www.w3.org/2000/svg" xmlns:xlink="http://www.w3.org/1999/xlink">
    <!-- Generator: Sketch 56.2 (81672) - https://sketch.com -->
    <title>valspec_logo</title>
    <desc>Created with Sketch.</desc>
    <defs>
        <polygon id="path-1" points="0 25 123 25 123 0 0 0"></polygon>
    </defs>
    <g id="Page-1" stroke="none" stroke-width="1" fill="none" fill-rule="evenodd">
        <g id="SPECTACLE" transform="translate(-32.000000, -80.000000)">
            <g id="valspec_logo" transform="translate(32.000000, 80.000000)">
                <path d="M54.2801545,4.89808438 C54.2726361,5.08231155 54.2611078,5.22937009 54.2611078,5.37642863 C54.2601054,7.96368924 54.2716336,10.5514885 54.2500808,13.1387491 C54.2460709,13.594469 54.3909261,13.6995108 54.7788773,13.7086683 C56.5376895,13.749069 58.1501429,12.5731394 58.7731704,10.7631882 C59.3801586,9.00064045 58.8548708,6.97629621 57.4694741,5.80736939 C56.5366871,5.0209025 55.4841063,4.69392619 54.2801545,4.89808438 L54.2801545,4.89808438 Z M32.3212084,19.8893882 C33.3207816,19.8893882 34.2278766,19.894051 35.1349716,19.8831711 C35.2466529,19.8821349 35.363893,19.8075298 35.4679942,19.7484674 C36.7374218,19.0272846 38.0043227,18.3029932 39.2752664,17.5776657 C39.4844794,18.0781417 39.6451792,18.563075 39.8811755,19.0060428 C40.5649078,20.2872821 41.6008659,20.7789506 42.7869115,20.428721 C43.3528983,20.2613776 43.7925488,19.9241003 44.1043469,19.4117082 C44.9002659,18.102492 44.7456302,16.0202839 43.7566693,14.8535428 C43.3079226,14.3235356 42.7459785,14.0142352 42.0521393,13.95051 C38.9311262,13.6655599 36.4458375,11.1320945 36.1193844,7.92511063 C35.8505407,5.29113553 36.6171496,3.04728302 38.642574,1.38110208 C41.6119835,-1.0622155 45.8023075,-0.161255092 47.7701224,3.2752431 C47.8489563,3.41201915 47.9227367,3.55190375 48.0450303,3.77416482 C48.3118527,2.92190498 48.5988889,2.15046735 48.7868773,1.35467944 C48.913719,0.820527523 49.1340496,0.655774556 49.6747692,0.672871562 C51.5986191,0.732970128 53.5310599,0.632978548 55.4473296,0.775971689 C59.1434258,1.05263233 62.3548958,4.22956689 62.8996581,7.99816147 C63.5874332,12.7516472 60.6771491,17.0222721 56.0845702,17.9553541 C55.3851721,18.0973111 54.6584855,18.0978292 53.8822749,18.1693257 L53.8822749,24.2926443 L49.5206389,24.2926443 L49.5206389,5.17042031 C48.8065858,5.16834794 48.1673239,5.05592218 47.5336208,5.46884078 C46.6391594,6.05169325 45.6855727,6.53973506 44.7178363,7.09098398 C44.6804407,6.92726719 44.6521414,6.79619015 44.6208099,6.66614928 C44.582909,6.51124005 44.5530937,6.35322226 44.5020538,6.20245776 C44.1139485,5.04815081 43.1163967,4.29743682 42.2017215,4.46581643 C41.1404962,4.66113677 40.2753449,5.88124128 40.3142565,7.12828653 C40.3526628,8.34476441 41.186988,9.35193349 42.3149189,9.41773106 C45.8877108,9.62652177 48.6928831,12.8324694 48.9116977,16.5984736 C49.0633013,19.1982546 48.2865854,21.4560956 46.3859814,23.2155329 C43.365532,26.0116706 38.8846344,25.4526503 36.4741369,22.0234054 C36.3826694,21.8933645 36.2922125,21.7628055 36.114331,21.5084228 L36.114331,24.2884996 L28,24.2884996 L28,0.71949976 L32.3212084,0.71949976 L32.3212084,19.8893882 Z" id="Fill-1" fill="#000000"></path>
                <path d="M18.2006081,13.6 L22.1973176,13.6 C22.1973176,11.2672469 22.2052006,8.96820124 22.1939391,6.66915558 C22.1883084,5.58704763 21.2879507,4.78005187 20.1494122,4.80037548 C19.020446,4.82020338 18.2022973,5.60935403 18.2011712,6.68848779 C18.1989189,8.83584997 18.2006081,10.9827165 18.2006081,13.1295829 C18.2006081,13.2797793 18.2006081,13.4299757 18.2006081,13.6 L18.2006081,13.6 Z M27,24 L22.4151717,24 L22.4151717,17.919928 L18.6197733,17.919928 L18.6197733,23.9882258 L13.996932,23.9882258 L13.996932,17.894332 L11,17.894332 C11.4931389,16.4025976 11.9664234,14.9717817 12.4482935,13.5143459 L13.9513206,13.5143459 C13.9615161,13.3034349 13.9781508,13.1211914 13.9781508,12.9394599 C13.9797606,10.7346211 13.9781508,8.52978235 13.9797606,6.32494358 C13.9819071,2.95292758 16.6160949,0.222859057 20.0675302,0.012971921 C23.5044773,-0.196403295 26.4761889,2.15074919 26.9661081,5.46440633 C26.9913285,5.6364114 26.9988409,5.8119999 26.9988409,5.98605265 C27.0004507,11.8552136 27,17.7243746 27,23.5935356 L27,24 Z" id="Fill-3" fill="#000000"></path>
                <path d="M96.9075823,6.77397805 C95.6604744,7.63404461 94.485601,8.44489049 93.374464,9.2111787 C92.7694998,8.38582568 92.2750119,7.52005988 91.5999377,6.82009005 C88.2112885,3.30625187 82.6906583,3.74250249 79.8591709,7.70761657 C77.5412923,10.9520363 77.8589118,15.3274954 80.6213514,18.2206349 C84.1916493,21.9593339 90.3315844,21.0987492 92.8688222,16.5025743 C93.023914,16.2222755 93.1630717,15.934205 93.3245371,15.6202289 C94.5238428,16.4481725 95.7024341,17.2610908 97,18.1558709 C96.3791017,19.0439155 95.8442475,19.9666737 95.1564261,20.7635305 C92.6808,23.6338731 89.5040741,25.1923552 85.6411201,24.9809653 C80.5671755,24.702739 77.0834529,22.0391232 75.0784135,17.5704039 C72.7695642,12.4245117 74.273211,6.26726414 78.5839128,2.71923054 C83.8549089,-1.61996068 91.5494798,-0.663007106 95.658881,4.85437167 C96.1076911,5.45745448 96.481611,6.1149391 96.9075823,6.77397805" id="Fill-5" fill="#000000"></path>
                <polygon id="Fill-8" fill="#000000" points="75 1 75 5.3081403 68.3792318 5.3081403 68.3792318 7.57366709 73.1006789 7.57366709 73.1006789 11.9182014 68.3776972 11.9182014 68.3776972 19.6999473 74.992327 19.6999473 74.992327 24 64 24 64 1"></polygon>
                <path d="M10.3451276,1 L15,1 C14.6770506,2.02103276 14.3704791,3.00166857 14.057254,3.98028453 C11.9690869,10.5023711 9.87989627,17.0244577 7.79070561,23.5460393 C7.78149311,23.5758321 7.78302852,23.6126943 7.76562713,23.6359225 C7.6719667,23.7591332 7.57370001,23.8788092 7.47696875,24 C7.39354442,23.8823439 7.27531732,23.7763019 7.23232564,23.6460218 C6.83465265,22.427044 6.45131022,21.2040265 6.06080251,19.9830289 C4.08881534,13.8179503 2.11631636,7.65337666 0.144840999,1.48829806 C0.0977548792,1.34135418 0.0557868159,1.19289541 0,1.00605954 L4.64873072,1.00605954 C5.57816978,4.18580399 6.51016787,7.37564767 7.44216596,10.5654913 C7.47799236,10.5690261 7.51381875,10.5725608 7.54964515,10.5755906 C8.48266685,7.3791824 9.41568855,4.18277422 10.3451276,1" id="Fill-10" fill="#000000"></path>
                <mask id="mask-2" fill="white">
                    <use xlink:href="#path-1"></use>
                </mask>
                <g id="Clip-13"></g>
                <path d="M100.419355,23.3870968 L121.387097,23.3870968 L121.387097,2.41935484 L100.419355,2.41935484 L100.419355,23.3870968 Z M98,25 L98,0 C106.33368,0 114.66684,0 123,0 C122.998959,0.0140534238 122.995836,0.0275863505 122.995836,0.0416397743 C122.996357,8.26185172 122.996877,16.4815432 122.997918,24.7017551 C122.997918,24.7964856 122.997918,24.8906956 122.997918,25 L98,25 Z" id="Fill-12" fill="#000000" mask="url(#mask-2)"></path>
                <path d="M115.159285,12.4927585 C115.464467,12.4239585 115.546285,12.2375585 115.532376,12.0119585 C115.529103,11.9703585 115.336831,11.8847585 115.281194,11.9127585 C115.029194,12.0391585 115.099558,12.2535585 115.159285,12.4927585 M110,10.9936188 L110,3 C110.518188,3.02994232 111.025483,3.04663149 111.530184,3.09326298 C111.879274,3.12565959 112.228363,3.18308995 112.570191,3.2591729 C113.229467,3.40643024 113.808862,3.69210946 114.235758,4.2089827 C114.780918,4.87065898 114.987363,5.63443367 115.010705,6.46054731 C115.025748,6.98183826 115.103554,7.49723893 115.303256,7.99055099 C115.343715,8.09117683 115.336972,8.20849184 115.355645,8.31746227 C115.389361,8.51331452 115.411665,8.71260277 115.465092,8.90403731 C115.518,9.09547184 115.659607,9.16811879 115.870202,9.12885017 C116.566306,8.99975457 117.272266,8.95606823 117.974076,9.001718 C118.250028,9.01938888 118.560733,9.15241134 118.772365,9.32470242 C119.144278,9.62707081 119.030681,10.0099399 118.646838,10.3756289 C118.346507,10.661799 117.951771,10.8026752 117.559629,10.923917 C117.187717,11.0387778 116.798168,11.1055344 116.414844,11.1850534 C116.206324,11.2282489 116.024777,11.2915695 115.905993,11.479568 C115.864496,11.545343 115.769573,11.5860842 115.691767,11.6248619 C115.560534,11.690146 115.532005,11.7789913 115.555866,11.9154497 C115.606699,12.2035833 115.654939,12.4941711 115.66635,12.7852497 C115.671019,12.8971653 115.569352,13.0105534 115.524743,13.1263959 C115.483766,13.2319303 115.426189,13.3413916 115.426708,13.4488894 C115.428264,13.6761566 115.4459,13.9387655 115.239974,14.0595165 C114.958316,14.2244447 115.026785,14.534176 114.842126,14.7295374 C114.798036,14.7761689 114.846275,14.9013376 114.853019,15 L114.616488,15 C114.616488,14.8610872 114.625306,14.7310099 114.614932,14.6024052 C114.582772,14.199411 114.545426,13.7973985 114.506004,13.3948951 C114.471769,13.0434409 114.434422,12.6924776 114.393963,12.3420052 C114.365434,12.0970671 114.360766,11.8447662 114.289184,11.6111179 C114.184406,11.2709535 113.968624,11.0294515 113.451473,11.0029451 C112.76315,10.9676034 112.071714,10.9936188 111.381316,10.9936188 C110.928485,10.9936188 110.475135,10.9936188 110,10.9936188" id="Fill-14" fill="#000000" mask="url(#mask-2)"></path>
                <path d="M107.804424,9.51877016 C107.502488,9.25881987 107.206755,9.20073042 106.889826,9.20073042 C105.310347,9.20073042 103.730869,9.20073042 102.151391,9.20073042 C101.772936,9.20073042 101.394482,9.20073042 101.002068,9.20073042 L101.002068,8.01280119 C101.064627,8.00844448 101.130288,8.00021515 101.195948,8.00021515 C103.072193,7.99973107 104.948437,8.00021515 106.824682,8.00021515 C107.404772,8.00021515 107.946603,8.11687812 108.412433,8.45960587 C109.27171,9.09181271 109.175029,10.1809899 108.210797,10.6708776 C107.773403,10.8930697 107.298267,10.9981148 106.800382,10.9985989 C104.924138,11.0005352 103.047893,11.0000511 101.171649,10.999567 C101.117879,10.999567 101.064627,10.9903695 101,10.9845606 L101,9.7956632 C101.086858,9.7956632 101.167513,9.7956632 101.24765,9.7956632 C103.061853,9.7956632 104.876055,9.79711543 106.689741,9.79372688 C106.888792,9.7932428 107.093012,9.78598162 107.284308,9.74193046 C107.449752,9.70417232 107.60072,9.6088088 107.804424,9.51877016" id="Fill-15" fill="#000000" mask="url(#mask-2)"></path>
                <path d="M108.165078,21.25 C108.176537,21.2347874 108.188541,21.2195748 108.2,21.2038376 C108.082685,21.0983986 107.982286,20.9609607 107.844782,20.8943401 C107.614518,20.7820816 107.366793,20.67979 107.114703,20.6346768 C106.135808,20.461568 105.146546,20.4715349 104.161103,20.5733019 C103.804248,20.6105465 103.450667,20.7049695 103.105817,20.8056874 C102.885375,20.8696852 102.704765,21.0144671 102.6,21.25 L108.165078,21.25 Z M108.994476,22 L101.065295,22 C100.8292,21.2982894 101.257285,20.2145825 101.964015,19.7352417 C102.516635,19.3601657 103.154871,19.1622473 103.835138,19.0805886 C104.999531,18.9408001 106.156659,18.9606381 107.276945,19.3186443 C107.547288,19.4049164 107.808809,19.5285577 108.049056,19.6697303 C108.650451,20.0226617 108.951927,20.5393716 108.991882,21.1737254 C109.008486,21.4426914 108.994476,21.7130414 108.994476,22 L108.994476,22 Z" id="Fill-16" fill="#000000" mask="url(#mask-2)"></path>
                <path d="M101.8,14.25 L104.2,14.25 C104.026939,13.7696819 103.566531,13.4952994 102.962993,13.500061 C102.383401,13.5048225 101.961633,13.7720627 101.8,14.25 L101.8,14.25 Z M101.00283,15 C100.998138,14.4037617 100.973637,13.8113031 101.225943,13.2604206 C101.59502,12.4529949 102.305543,12.0509357 103.254298,12.0032177 C104.192106,11.9559722 105.056411,12.4326793 105.447382,13.1909697 C105.526097,13.3440451 105.595429,13.5046798 105.639218,13.6686217 C105.675709,13.8065786 105.743998,13.8448474 105.895695,13.8439025 C106.855397,13.8377606 107.814578,13.8410678 108.773758,13.8410678 L109,13.8410678 L109,15 L101.00283,15 Z" id="Fill-17" fill="#000000" mask="url(#mask-2)"></path>
                <polygon id="Fill-18" fill="#000000" mask="url(#mask-2)" points="104.582752 16.8238379 104.582752 16 105.615043 16 105.615043 16.8162098 107.958836 16.8162098 107.958836 16.0038141 109 16.0038141 109 18 101 18 101 16.0042908 102.038032 16.0042908 102.038032 16.8238379"></polygon>
                <path d="M102.103954,3.01485624 C102.082409,3.17349628 102.041884,3.31611207 102.049066,3.45712543 C102.063429,3.74996853 102.329663,3.98792858 102.702595,3.99914555 C103.010893,4.00835949 103.340222,3.99473888 103.628001,3.9174219 C104.208175,3.76198671 104.763726,3.5524697 105.334154,3.37299814 C105.968703,3.17349628 106.605818,2.98280775 107.31167,3.00123564 C108.40328,3.02927807 109.121444,3.67785942 108.982941,4.52834627 C108.958318,4.68137782 108.915741,4.83240634 108.880859,4.98744092 L107.834391,4.98744092 C107.856449,4.83280695 107.894922,4.68538389 107.894922,4.53796082 C107.894922,4.17861711 107.621507,3.95868433 107.161369,3.97991646 C106.879746,3.99313646 106.589402,4.04080859 106.325733,4.119728 C105.777877,4.28357592 105.246435,4.48107475 104.70576,4.6605463 C104.065055,4.87246696 103.409987,5.04512821 102.700543,4.98944395 C102.4379,4.96901304 102.16705,4.93536212 101.922874,4.86165059 C101.330901,4.68298025 101.05133,4.30520865 101.00465,3.83129158 C100.982079,3.60094304 101.04774,3.36538662 101.071849,3.13223385 C101.08057,3.04970898 101.125199,3.01085018 101.241131,3.01325382 C101.527884,3.0184617 101.814636,3.01485624 102.103954,3.01485624" id="Fill-19" fill="#000000" mask="url(#mask-2)"></path>
                <polygon id="Fill-20" fill="#000000" mask="url(#mask-2)" points="101 7 109 7 109 6 101 6"></polygon>
                <path d="M113.294082,19.1413397 C113.291415,19.1413397 113.289415,19.1413397 113.286748,19.1413397 C113.286748,18.826994 113.296748,18.5126483 113.282748,18.1989588 C113.276082,18.0401453 113.230748,17.868863 113.024748,17.8577067 C112.816748,17.8465504 112.764082,18.0027388 112.737415,18.1681149 C112.724748,18.2455529 112.706748,18.3236471 112.706748,18.4017413 C112.704082,18.9169008 112.704082,19.4320603 112.708082,19.9472198 C112.708748,20.0331891 112.708748,20.1329397 112.750748,20.2025026 C112.807415,20.2956907 112.912748,20.4361291 112.981415,20.4282541 C113.080082,20.4164415 113.182748,20.301597 113.249415,20.2070964 C113.294748,20.1434398 113.290748,20.0397516 113.292082,19.9531261 C113.297415,19.6827494 113.294082,19.4117164 113.294082,19.1413397 M112,21.4582358 L112.807189,21.4582358 C112.814901,21.6305173 112.817043,21.8033692 112.832039,21.9739392 C112.844892,22.1171267 112.858602,22.2791398 113.008558,22.2802807 C113.156799,22.2808512 113.187647,22.1182677 113.190218,21.9779325 C113.199215,21.4776317 113.193646,20.977331 113.193646,20.42797 C113.003845,20.716627 112.787052,20.823875 112.525273,20.770251 C112.311907,20.7268954 112.165808,20.5797146 112.096828,20.3115945 C112.059982,20.1689774 112.021851,20.0166624 112.023564,19.8694815 C112.03042,19.2174362 112.020137,18.5602567 112.075835,17.9144866 C112.127676,17.3189176 112.392026,17.0570727 112.846177,17.0102943 C112.897591,17.00516 112.949004,17 113.000417,17 C113.628945,16.996603 113.94985,17.3331793 113.972557,18.1649222 C114.005976,19.3874358 114.01326,20.6150836 113.969558,21.8364563 C113.939567,22.6830313 113.651653,23.1217215 112.706505,22.9705474 C112.254067,22.8980979 112.073692,22.6157161 112.029991,22.0081673 C112.017566,21.8353154 112.010711,21.6607521 112,21.4582358" id="Fill-21" fill="#000000" mask="url(#mask-2)"></path>
                <path d="M118.725008,20.8510959 C118.723675,20.8510959 118.723008,20.8510959 118.721675,20.8510959 C118.721675,21.1563395 118.714342,21.4622381 118.725008,21.7674816 C118.730342,21.9443395 118.754342,22.1388831 118.999675,22.1428133 C119.229008,22.1460884 119.271008,21.9653004 119.273675,21.7956479 C119.283008,21.16813 119.282342,20.5406121 119.276342,19.9130942 C119.275008,19.7368914 119.217675,19.5619986 118.996342,19.5718241 C118.779008,19.5809945 118.735675,19.7670227 118.729008,19.9347102 C118.715675,20.2399538 118.725008,20.5458523 118.725008,20.8510959 M119.980752,18.4662439 L119.208423,18.4662439 C119.195122,18.2876181 119.198554,18.1101337 119.162941,17.9469165 C119.142346,17.8516114 119.059964,17.7797045 119.005472,17.6975252 C118.94626,17.775139 118.838134,17.8510407 118.835988,17.9320786 C118.820542,18.458825 118.827836,18.9867127 118.827836,19.5482712 C118.993458,19.3108644 119.177959,19.1864541 119.411374,19.2081403 C119.660236,19.2315385 119.837871,19.3804885 119.916821,19.6966504 C119.958012,19.861009 119.994054,20.0373521 119.992766,20.2074175 C119.987617,20.8226208 119.995341,21.4412482 119.942136,22.0501738 C119.886357,22.6807857 119.599736,22.9718373 119.122609,22.9969477 C119.07112,22.9998011 119.019631,23.0003718 118.968143,22.9998011 C118.38675,22.9923822 118.10485,22.663665 118.035769,21.8926635 C118.010883,21.6141671 117.99844,21.3311051 118.000156,21.0503259 C118.005305,20.0847193 117.997153,19.1168299 118.037486,18.1529354 C118.071811,17.3368495 118.370016,17.0104151 118.984447,17.0001427 C119.024351,16.999572 119.064255,17.0007134 119.104587,17.0035668 C119.794535,17.0452271 120.080297,17.5149046 119.980752,18.4662439" id="Fill-22" fill="#000000" mask="url(#mask-2)"></path>
                <path d="M115.981106,17 C116.035342,17.3932224 115.962316,17.7614394 115.894414,18.130637 C115.667648,19.3627665 115.440882,20.5944057 115.220522,21.8280061 C115.197888,21.9545041 115.164151,22.0050052 115.047565,21.9996119 C114.826351,21.9893156 114.604709,21.9966701 114.357445,21.9966701 C114.632468,20.5718518 114.904075,19.1632135 115.180806,17.7276085 L114,17.7276085 L114,17 L115.981106,17 Z" id="Fill-23" fill="#000000" mask="url(#mask-2)"></path>
                <path d="M111,17.0014134 L111,22 L109.774787,22 L109.774787,18.3203963 C109.512623,18.4445878 109.287243,18.5511078 109.001672,18.6856077 C109.001672,18.3626116 108.994984,18.0980296 109.00836,17.8334476 C109.010366,17.7887779 109.096639,17.7460718 109.146129,17.7038565 C109.384217,17.5045609 109.621635,17.3047746 109.863066,17.1069517 C109.911219,17.0671908 109.972078,17.0077948 110.030262,17.0063222 C110.348604,16.9960138 110.667614,17.0014134 111,17.0014134" id="Fill-24" fill="#000000" mask="url(#mask-2)"></path>
                <path d="M112.336076,15.3246556 C112.417541,15.2923759 112.499005,15.2607291 112.600737,15.2208542 C112.559011,15.3904808 112.548679,15.5949189 112.483507,15.6594783 C112.34919,15.7930277 112.189042,15.8949303 112.03247,15.9303746 C111.830199,15.975946 111.620775,15.9430334 111.41453,15.9455651 C111.367638,15.946198 111.317169,15.9386028 111.274251,15.9620214 C111.118872,16.0481006 111.042971,15.9943011 111.014359,15.7341647 C110.97303,15.3569353 111.013961,15.0246442 111.228949,14.7803312 C111.565538,14.3980383 111.930739,14.1163821 112.338063,14.0119478 C112.481918,13.9758705 112.640079,14.0277711 112.784728,14.0841024 C112.850695,14.1094198 112.917059,14.2271458 112.954414,14.3296813 C113.052966,14.5986788 112.988192,14.7607102 112.794266,14.733494 C112.707237,14.7208353 112.623786,14.6505795 112.53636,14.6239962 C112.48152,14.6069069 112.401645,14.5872859 112.369854,14.6328573 C112.322564,14.7024802 112.287992,14.8265355 112.284018,14.9316028 C112.278852,15.0493287 112.313822,15.1714852 112.336076,15.3246556" id="Fill-25" fill="#000000" mask="url(#mask-2)"></path>
                <path d="M112.369116,12 C112.781226,12.125007 113.195373,12.2334114 113.604937,12.3857637 C113.725157,12.4306881 113.839773,12.5820637 113.942164,12.7236731 C113.982916,12.7812935 114.0145,12.9795468 113.993104,13.052793 C113.969162,13.1377587 113.882054,13.157291 113.820925,13.2002622 C113.810737,13.2070985 113.792908,13.1973323 113.782719,13.1836597 C113.449058,12.7305094 113.108265,12.9473184 112.749133,13.0703721 C112.214256,13.2539761 111.72115,13.6534124 111.212762,13.975696 C111.167425,14.0040179 111.084392,14.0147607 111.067072,13.9678831 C111.028357,13.863385 110.986076,13.6954069 111.004415,13.5909089 C111.105787,13.0000557 111.423147,12.0351582 111.891292,12.1162174 C112.046661,12.1435627 112.204068,12.1211005 112.359946,12.1211005 C112.363003,12.0800826 112.366059,12.0400413 112.369116,12" id="Fill-26" fill="#000000" mask="url(#mask-2)"></path>
                <path d="M114.994622,15.2695 C115.024368,15.3835 115.054113,15.4975 115.08426,15.6125 C115.075417,15.6525 115.066975,15.6925 115.058534,15.7325 C115.010701,15.6915 114.946789,15.6815 114.921064,15.5985 C114.902975,15.5395 114.935936,15.3815 114.946387,15.2675 C114.962466,15.2675 114.978544,15.2685 114.994622,15.2695" id="Fill-27" fill="#000000" mask="url(#mask-2)"></path>
            </g>
        </g>
    </g>
</svg>