<?xml version="1.0" encoding="UTF-8"?>
<svg width="886px" height="619px" viewBox="0 0 886 619" version="1.1" xmlns="http://www.w3.org/2000/svg" xmlns:xlink="http://www.w3.org/1999/xlink">
    <!-- Generator: Sketch 56.2 (81672) - https://sketch.com -->
    <title>valspec-sprite</title>
    <desc>Created with Sketch.</desc>
    <defs>
        <polygon id="path-1" points="0.073818 0.0354364408 7.44002731 0.0354364408 7.44002731 7.74 0.073818 7.74"></polygon>
        <polygon id="path-3" points="0 0.0159753376 7.511274 0.0159753376 7.511274 7.577262 0 7.577262"></polygon>
    </defs>
    <g id="valspec-sprite" stroke="none" stroke-width="1" fill="none" fill-rule="evenodd">
        <g id="profile" transform="translate(65.000000, 0.000000)" fill="#FFFFFF" fill-rule="nonzero">
            <path d="M9,10 C11.7607541,10 14,7.75728555 14,4.99232925 C14,2.22737295 11.7607209,0 9,0 C6.23927906,0 4,2.24271445 4,4.99232925 C4,7.74194405 6.2392459,10 9,10 Z M9,1.30568764 C11.0245287,1.30568764 12.6809944,2.96466142 12.6809944,4.99232925 C12.6809944,7.01999708 11.0245287,8.67893765 9,8.67893765 C6.97547131,8.67893765 5.31900559,7.01996387 5.31900559,4.99229604 C5.31900559,2.96462822 6.97543815,1.30568764 9,1.30568764 Z" id="Shape"></path>
            <path d="M0.67076478,18 L18.3292352,18 C18.7036171,18 19,17.7057569 19,17.3340778 C19,13.8495617 16.1453295,11 12.6198605,11 L6.3801395,11 C2.8702838,11 0,13.8340611 0,17.3340778 C0,17.7057569 0.296382869,18 0.67076478,18 Z M6.3801395,12.3318443 L12.6198605,12.3318443 C15.1781481,12.3318443 17.2840548,14.2212407 17.6116643,16.6681222 L1.38833573,16.6681222 C1.71591147,14.2367413 3.82185187,12.3318443 6.3801395,12.3318443 Z" id="Shape"></path>
        </g>
        <path d="M48.9959121,16.4239264 L47.851303,4.17300613 C47.8267757,3.90102249 47.5855902,3.69509202 47.3035258,3.69509202 L44.9489014,3.69509202 C44.9161983,1.65132924 43.1584057,0 41,0 C38.8415943,0 37.0838017,1.65132924 37.0510986,3.69509202 L34.6964742,3.69509202 C34.4103219,3.69509202 34.1732243,3.90102249 34.148697,4.17300613 L33.0040879,16.4239264 C33.0040879,16.4394683 33,16.4550102 33,16.4705521 C33,17.8654397 34.3449157,19 36.000511,19 L45.999489,19 C47.6550843,19 49,17.8654397 49,16.4705521 C49,16.4550102 49,16.4394683 48.9959121,16.4239264 Z M41,1.04907975 C42.5493102,1.04907975 43.8124681,2.23026585 43.8451712,3.69509202 L38.1548288,3.69509202 C38.1875319,2.23026585 39.4506898,1.04907975 41,1.04907975 Z M45.999489,17.9509202 L36.000511,17.9509202 C34.962187,17.9509202 34.1200818,17.2981595 34.1037302,16.493865 L35.1992846,4.74805726 L37.0470107,4.74805726 L37.0470107,6.34110429 C37.0470107,6.63251534 37.2922841,6.86564417 37.5988758,6.86564417 C37.9054676,6.86564417 38.1507409,6.63251534 38.1507409,6.34110429 L38.1507409,4.74805726 L43.8451712,4.74805726 L43.8451712,6.34110429 C43.8451712,6.63251534 44.0904446,6.86564417 44.3970363,6.86564417 C44.703628,6.86564417 44.9489014,6.63251534 44.9489014,6.34110429 L44.9489014,4.74805726 L46.7966275,4.74805726 L47.8962698,16.493865 C47.8799182,17.2981595 47.0337251,17.9509202 45.999489,17.9509202 Z" id="Shape" fill="#FFFFFF" fill-rule="nonzero"></path>
        <g id="heart-(2)" fill="#FFFFFF" fill-rule="nonzero">
            <path d="M17.34404,1.56004 C16.35604,0.57204 15.04804,0.03204 13.65204,0.03204 C12.25604,0.03204 10.94404,0.57604 9.95604,1.56404 L9.44004,2.08004 L8.91604,1.55604 C7.92804,0.56804 6.61204,0.02004 5.21604,0.02004 C3.82404,0.02004 2.51204,0.56404 1.52804,1.54804 C0.54004,2.53604 -0.00396,3.84804 1.80971315e-05,5.24404 C1.80971315e-05,6.64004 0.54804,7.94804 1.53604,8.93604 L9.04804,16.44804 C9.15204,16.55204 9.29204,16.60804 9.42804,16.60804 C9.56404,16.60804 9.70404,16.55604 9.80804,16.45204 L17.33604,8.95204 C18.32404,7.96404 18.8680621,6.65204 18.8680621,5.25604 C18.87204,3.86004 18.33204,2.54804 17.34404,1.56004 Z M16.57604,8.18804 L9.42804,15.30804 L2.29604,8.17604 C1.51204,7.39204 1.08004,6.35204 1.08004,5.24404 C1.08004,4.13604 1.50804,3.09604 2.29204,2.31604 C3.07204,1.53604 4.11204,1.10404 5.21604,1.10404 C6.32404,1.10404 7.36804,1.53604 8.15204,2.32004 L9.05604,3.22404 C9.26804,3.43604 9.60804,3.43604 9.82004,3.22404 L10.71604,2.32804 C11.50004,1.54404 12.54404,1.11204 13.64804,1.11204 C14.75204,1.11204 15.79204,1.54404 16.57604,2.32404 C17.36004,3.10804 17.7880675,4.14804 17.7880675,5.25604 C17.79204,6.36404 17.36004,7.40404 16.57604,8.18804 Z" id="Shape"></path>
        </g>
        <g id="valspec_calendar-text" transform="translate(0.000000, 35.000000)">
            <path d="M50.774148,6.874722 C50.215428,6.460902 49.804848,5.939622 49.542228,5.310882 C49.279608,4.682682 49.201308,4.004262 49.307508,3.275442 C49.413348,2.546622 49.681908,1.918782 50.112828,1.391022 C50.543928,0.863622 51.085908,0.481122 51.739488,0.243522 C52.392708,0.005922 53.097948,-0.057798 53.854668,0.052362 C54.492048,0.145062 55.052208,0.341262 55.534428,0.640422 C56.016828,0.939582 56.402388,1.324602 56.691648,1.796022 L55.451808,2.645802 C55.037808,1.998882 54.463248,1.621962 53.727588,1.514862 C53.272188,1.448622 52.851348,1.489122 52.465068,1.636722 C52.078608,1.784502 51.759648,2.022462 51.507828,2.350782 C51.256188,2.679102 51.097248,3.070782 51.030828,3.526362 C50.964588,3.981762 51.005268,4.402602 51.152868,4.788882 C51.300648,5.175342 51.538608,5.494482 51.866748,5.746122 C52.195068,5.997582 52.586748,6.156882 53.042328,6.222942 C53.777808,6.330222 54.436788,6.128982 55.018908,5.619942 L55.964988,6.787962 C55.552428,7.164342 55.070568,7.426962 54.519588,7.575822 C53.968428,7.724502 53.373888,7.752222 52.736508,7.659342 C51.986808,7.550442 51.332688,7.288902 50.774148,6.874722" id="Fill-1" fill="#1A171B"></path>
            <path d="M65.307384,8.547804 L65.440404,5.469804 L63.170064,7.552224 L65.307384,8.547804 Z M65.246904,9.960444 L62.117964,8.503164 L60.848604,9.669204 L59.250564,8.925084 L65.392884,3.584844 L66.932964,4.302324 L66.807864,12.444804 L65.171124,11.682324 L65.246904,9.960444 Z" id="Fill-3" fill="#1A171B"></path>
            <polygon id="Fill-5" fill="#1A171B" points="75.173292 9.391914 76.475412 10.516194 72.533772 15.082254 75.355452 17.518014 74.439252 18.579294 70.315452 15.019074"></polygon>
            <polygon id="Fill-7" fill="#1A171B" points="81.793026 26.00325 80.650206 26.77815 77.419926 22.01409 83.573046 17.84205 86.725746 22.49181 85.583106 23.26671 83.389806 20.03193 82.053666 20.93787 83.990646 23.79465 82.883286 24.54561 80.946126 21.68883 79.522326 22.65435"></polygon>
            <polygon id="Fill-9" fill="#1A171B" points="91.967418 35.459226 84.874518 37.684566 84.451518 36.337086 87.648318 31.449366 83.341818 32.800626 82.833138 31.179726 89.926218 28.953846 90.352098 30.311586 87.152238 35.189226 91.458738 33.837786"></polygon>
            <path d="M87.056442,46.191366 C87.044562,46.934586 87.241842,47.530746 87.648822,47.980206 C88.055802,48.429126 88.613082,48.659706 89.321202,48.670866 C90.028962,48.682566 90.593622,48.470166 91.015002,48.034566 C91.436202,47.598606 91.652922,47.009466 91.665162,46.266246 L91.690362,44.694486 L87.082002,44.619966 L87.056442,46.191366 Z M93.130542,42.997086 L93.075822,46.373886 C93.062862,47.181006 92.897262,47.891466 92.579382,48.505986 C92.261322,49.120506 91.819782,49.594806 91.255122,49.929246 C90.690102,50.263506 90.036342,50.424606 89.292942,50.412546 C88.549722,50.400306 87.901002,50.218146 87.347502,49.865886 C86.793822,49.513266 86.368122,49.024926 86.070222,48.400506 C85.772142,47.776266 85.629762,47.060406 85.642722,46.253646 L85.697622,42.876846 L93.130542,42.997086 Z" id="Fill-11" fill="#1A171B"></path>
            <path d="M88.860312,60.940116 C89.154432,60.751296 89.379612,60.410376 89.535852,59.917716 L89.959752,58.581396 L87.489792,57.797856 L87.065712,59.134176 C86.909472,59.626656 86.898672,60.035616 87.033312,60.360336 C87.167772,60.685236 87.430752,60.909876 87.822072,61.034256 C88.220232,61.160616 88.566372,61.129296 88.860312,60.940116 L88.860312,60.940116 Z M83.297952,59.631876 L85.705452,58.891896 L85.731012,58.811076 L86.184072,57.383676 L84.210012,56.757276 L84.730392,55.117476 L91.816272,57.365856 L90.843192,60.432876 C90.643932,61.060356 90.366192,61.572276 90.010512,61.968096 C89.654652,62.363916 89.244792,62.625816 88.780932,62.753436 C88.316892,62.881056 87.821712,62.861436 87.295572,62.694396 C86.769072,62.527356 86.355252,62.256636 86.054472,61.882596 C85.753332,61.508556 85.575672,61.056756 85.520772,60.527016 L82.739052,61.393356 L83.297952,59.631876 Z" id="Fill-13" fill="#1A171B"></path>
            <polygon id="Fill-15" fill="#1A171B" points="86.803326 69.518952 85.911426 70.990272 79.554366 67.136832 80.446266 65.665512"></polygon>
            <polygon id="Fill-17" fill="#1A171B" points="73.390158 76.611024 72.401238 75.647664 76.417938 71.524944 81.742698 76.712184 77.822478 80.736624 76.833558 79.772904 79.560738 76.973904 78.404418 75.847464 75.996018 78.319584 75.037338 77.385924 77.445918 74.913624 76.213818 73.713024"></polygon>
            <path d="M67.587444,85.737222 C67.931784,85.797702 68.328324,85.699962 68.777064,85.444002 L69.994944,84.749382 L68.711364,82.498662 L67.493664,83.192922 C67.044564,83.448882 66.759264,83.741742 66.637944,84.072222 C66.516444,84.401982 66.557304,84.745422 66.760704,85.102362 C66.967704,85.465062 67.243284,85.676742 67.587444,85.737222 L67.587444,85.737222 Z M64.386864,81.003402 L66.658104,82.092222 L66.731904,82.050102 L68.032764,81.308322 L67.006764,79.509222 L68.501304,78.657102 L72.183924,85.114962 L69.388524,86.708862 C68.816664,87.035202 68.265684,87.222942 67.735584,87.272442 C67.205664,87.322122 66.726864,87.236622 66.299364,87.015942 C65.872044,86.795082 65.521224,86.444982 65.247804,85.965102 C64.974204,85.485222 64.853604,85.006062 64.886184,84.526722 C64.918584,84.047922 65.094444,83.595222 65.413584,83.168622 L62.781624,81.918882 L64.386864,81.003402 Z" id="Fill-19" fill="#1A171B"></path>
            <g id="Group-23" transform="translate(37.620000, 84.747600)">
                <mask id="mask-2" fill="white">
                    <use xlink:href="#path-1"></use>
                </mask>
                <g id="Clip-22"></g>
                <path d="M5.837598,0.795564 C6.408378,1.192824 6.834258,1.701504 7.115598,2.321964 C7.396758,2.942604 7.495218,3.618324 7.410798,4.349844 C7.326378,5.081184 7.076718,5.717124 6.661638,6.257124 C6.246558,6.797484 5.716098,7.195824 5.069898,7.452684 C4.423878,7.709724 3.720978,7.794144 2.961378,7.706664 C2.321478,7.632684 1.755738,7.453404 1.264878,7.169004 C0.773838,6.884244 0.376938,6.510564 0.073818,6.047964 L1.287918,5.161644 C1.720818,5.795784 2.306358,6.155784 3.044718,6.240924 C3.502098,6.293664 3.921498,6.240564 4.303458,6.081264 C4.685238,5.922324 4.996998,5.674824 5.238738,5.339484 C5.480658,5.003784 5.627898,4.607604 5.680638,4.150224 C5.733378,3.693204 5.680098,3.273804 5.520978,2.891844 C5.361858,2.510064 5.114538,2.198304 4.779018,1.956384 C4.443498,1.714464 4.047318,1.567224 3.589938,1.514484 C2.851398,1.429344 2.198898,1.649844 1.632078,2.176164 L0.651618,1.036764 C1.053018,0.648324 1.526778,0.371664 2.073078,0.206424 C2.619558,0.041544 3.212838,-0.004176 3.852738,0.069624 C4.605318,0.156384 5.266998,0.398304 5.837598,0.795564" id="Fill-21" fill="#1A171B" mask="url(#mask-2)"></path>
            </g>
            <path d="M28.884114,84.307428 L28.843254,87.387768 L31.050054,85.238388 L28.884114,84.307428 Z M28.902294,82.893528 L32.073354,84.256128 L33.307074,83.052648 L34.926894,83.748708 L28.947474,89.270388 L27.386334,88.599708 L27.267534,80.457048 L28.926054,81.170028 L28.902294,82.893528 Z" id="Fill-24" fill="#1A171B"></path>
            <polygon id="Fill-26" fill="#1A171B" points="18.996066 83.75688 17.661006 82.67166 21.465666 77.99094 18.572886 75.6396 19.457226 74.55186 23.684886 77.98806"></polygon>
            <polygon id="Fill-28" fill="#1A171B" points="11.885706 67.348044 13.004946 66.539484 16.375266 71.205804 10.349046 75.558744 7.059546 71.004564 8.178606 70.196004 10.466946 73.364364 11.775546 72.419004 9.754506 69.621264 10.839366 68.837544 12.860226 71.635284 14.254866 70.628184"></polygon>
            <polygon id="Fill-30" fill="#1A171B" points="1.434114 58.20777 8.456814 55.76931 8.919954 57.10347 5.872014 62.08551 10.135854 60.60465 10.693134 62.20989 3.670614 64.64871 3.203694 63.30429 6.255234 58.33251 1.991574 59.81301"></polygon>
            <g id="Group-34" transform="translate(0.000000, 43.167600)">
                <mask id="mask-4" fill="white">
                    <use xlink:href="#path-3"></use>
                </mask>
                <g id="Clip-33"></g>
                <path d="M6.023574,4.147362 C6.006474,3.404142 5.785794,2.816262 5.361534,2.383182 C4.937454,1.950462 4.371354,1.742382 3.663594,1.758582 C2.955834,1.774602 2.399814,2.008782 1.995894,2.460582 C1.591974,2.912742 1.398654,3.509982 1.415574,4.253202 L1.451754,5.824602 L6.059574,5.718762 L6.023574,4.147362 Z M0.079254,7.577262 L0.001674,4.200822 C-0.017046,3.393882 0.120654,2.677482 0.414414,2.050722 C0.707994,1.424502 1.130634,0.933462 1.681794,0.576882 C2.233134,0.220842 2.880414,0.034362 3.623634,0.017262 C4.366854,-1.8e-05 5.022054,0.156762 5.588874,0.487242 C6.156054,0.817722 6.600654,1.289142 6.922674,1.901142 C7.244874,2.513682 7.414974,3.223062 7.433694,4.030362 L7.511274,7.406262 L0.079254,7.577262 Z" id="Fill-32" fill="#1A171B" mask="url(#mask-4)"></path>
            </g>
            <path d="M3.779208,32.64003 C3.491028,32.83803 3.276288,33.18525 3.134808,33.68241 L2.751228,35.03061 L5.243508,35.73981 L5.627268,34.39143 C5.768568,33.89445 5.767308,33.48549 5.622948,33.16455 C5.478588,32.84397 5.208948,32.62743 4.814028,32.51493 C4.412448,32.40063 4.067388,32.44239 3.779208,32.64003 L3.779208,32.64003 Z M9.378468,33.78051 L6.994188,34.59303 L6.970968,34.67457 L6.561288,36.11493 L8.552988,36.68157 L8.082108,38.33631 L0.932148,36.30195 L1.812708,33.20667 C1.992888,32.57361 2.254968,32.05359 2.598588,31.64715 C2.942568,31.24089 3.344328,30.96693 3.804228,30.82527 C4.263948,30.68397 4.759488,30.68847 5.290668,30.83967 C5.821848,30.99087 6.243588,31.24881 6.555528,31.61385 C6.867648,31.97871 7.058988,32.42493 7.129548,32.95287 L9.884268,32.00337 L9.378468,33.78051 Z" id="Fill-35" fill="#1A171B"></path>
            <polygon id="Fill-37" fill="#1A171B" points="5.577102 24.005664 6.424542 22.508424 12.894102 26.169804 12.046662 27.667224"></polygon>
            <polygon id="Fill-39" fill="#1A171B" points="18.776502 16.513866 19.793322 17.447526 15.900462 21.687426 10.424682 16.659846 14.224122 12.521466 15.240942 13.455306 12.598002 16.334226 13.786902 17.425746 16.121322 14.883246 17.107002 15.788286 14.772762 18.330786 16.039962 19.494486"></polygon>
            <path d="M24.305004,7.21926 C23.959044,7.16904 23.565744,7.27866 23.124564,7.54794 L21.928104,8.27856 L23.278284,10.49022 L24.474744,9.7596 C24.915924,9.49032 25.192224,9.189 25.303824,8.85546 C25.415424,8.52174 25.364304,8.17974 25.150284,7.82928 C24.932664,7.4727 24.650784,7.26948 24.305004,7.21926 L24.305004,7.21926 Z M27.645444,11.8557 L25.342704,10.8351 L25.269984,10.87902 L23.991984,11.6595 L25.071084,13.4271 L23.602644,14.32332 L19.729224,7.97832 L22.475664,6.30162 C23.037804,5.95854 23.582844,5.75424 24.111144,5.6889 C24.639264,5.62392 25.120404,5.69484 25.554384,5.9031 C25.988364,6.11082 26.349084,6.45048 26.636904,6.9219 C26.924544,7.39332 27.059544,7.86888 27.041184,8.3484 C27.023004,8.82828 26.860644,9.28602 26.554464,9.72198 L29.222604,10.8927 L27.645444,11.8557 Z" id="Fill-41" fill="#1A171B"></path>
            <path d="M39.105576,5.173488 C39.105576,6.127308 38.332296,6.900588 37.378476,6.900588 C36.424476,6.900588 35.651376,6.127308 35.651376,5.173488 C35.651376,4.219668 36.424476,3.446388 37.378476,3.446388 C38.332296,3.446388 39.105576,4.219668 39.105576,5.173488" id="Fill-43" fill="#1A171B"></path>
            <path d="M56.8089,88.44606 C56.8089,89.39988 56.0358,90.17316 55.08198,90.17316 C54.12816,90.17316 53.35506,89.39988 53.35506,88.44606 C53.35506,87.49224 54.12816,86.71896 55.08198,86.71896 C56.0358,86.71896 56.8089,87.49224 56.8089,88.44606" id="Fill-45" fill="#1A171B"></path>
        </g>
        <g id="valspec_calendar-icon" transform="translate(110.000000, 35.000000)" fill="#010002" fill-rule="nonzero">
            <path d="M26.4006,2.7 L22.5,2.7 L22.5,0.9 C22.5,0.4023 22.0977,0 21.6,0 C21.1023,0 20.7,0.4023 20.7,0.9 L20.7,2.7 L15.3,2.7 L15.3,0.9 C15.3,0.4023 14.8968,0 14.4,0 C13.9032,0 13.5,0.4023 13.5,0.9 L13.5,2.7 L8.1,2.7 L8.1,0.9 C8.1,0.4023 7.6968,0 7.2,0 C6.7032,0 6.3,0.4023 6.3,0.9 L6.3,2.7 L2.4003,2.7 C1.0746,2.7 0,3.7737 0,5.0994 L0,26.3997 C0,27.7254 1.0746,28.8 2.4003,28.8 L26.4006,28.8 C27.7263,28.8 28.8,27.7254 28.8,26.3997 L28.8,5.0994 C28.8,3.7737 27.7263,2.7 26.4006,2.7 Z M27,26.3997 C27,26.7309 26.7309,27 26.4006,27 L2.4003,27 C2.0691,27 1.8,26.7309 1.8,26.3997 L1.8,5.0994 C1.8,4.7691 2.0691,4.5 2.4003,4.5 L6.3,4.5 L6.3,6.3 C6.3,6.7977 6.7032,7.2 7.2,7.2 C7.6968,7.2 8.1,6.7977 8.1,6.3 L8.1,4.5 L13.5,4.5 L13.5,6.3 C13.5,6.7977 13.9032,7.2 14.4,7.2 C14.8968,7.2 15.3,6.7977 15.3,6.3 L15.3,4.5 L20.7,4.5 L20.7,6.3 C20.7,6.7977 21.1023,7.2 21.6,7.2 C22.0977,7.2 22.5,6.7977 22.5,6.3 L22.5,4.5 L26.4006,4.5 C26.7309,4.5 27,4.7691 27,5.0994 L27,26.3997 Z" id="Shape"></path>
            <rect id="Rectangle" x="6.3" y="10.8" width="3.6" height="2.7"></rect>
            <rect id="Rectangle" x="6.3" y="15.3" width="3.6" height="2.7"></rect>
            <rect id="Rectangle" x="6.3" y="19.8" width="3.6" height="2.7"></rect>
            <rect id="Rectangle" x="12.6" y="19.8" width="3.6" height="2.7"></rect>
            <rect id="Rectangle" x="12.6" y="15.3" width="3.6" height="2.7"></rect>
            <rect id="Rectangle" x="12.6" y="10.8" width="3.6" height="2.7"></rect>
            <rect id="Rectangle" x="18.9" y="19.8" width="3.6" height="2.7"></rect>
            <rect id="Rectangle" x="18.9" y="15.3" width="3.6" height="2.7"></rect>
            <rect id="Rectangle" x="18.9" y="10.8" width="3.6" height="2.7"></rect>
        </g>
        <g id="magnifying-glass-(3)" transform="translate(100.000000, 0.000000)" fill="#FFFFFF" fill-rule="nonzero">
            <path d="M17.7795918,16.7216327 L13.4522449,12.3942857 C14.524898,11.0865306 15.1714286,9.41142857 15.1714286,7.58571429 C15.1714286,3.39795918 11.7734694,0 7.58571429,0 C3.39428571,0 0,3.39795918 0,7.58571429 C0,11.7734694 3.39428571,15.1714286 7.58571429,15.1714286 C9.41142857,15.1714286 11.0828571,14.5285714 12.3906122,13.4559184 L16.7179592,17.7795918 C17.0118367,18.0734694 17.4857143,18.0734694 17.7795918,17.7795918 C18.0734694,17.4893878 18.0734694,17.0118367 17.7795918,16.7216327 Z M7.58571429,13.6616327 C4.23183673,13.6616327 1.50612245,10.9359184 1.50612245,7.58571429 C1.50612245,4.2355102 4.23183673,1.50612245 7.58571429,1.50612245 C10.9359184,1.50612245 13.6653061,4.2355102 13.6653061,7.58571429 C13.6653061,10.9359184 10.9359184,13.6616327 7.58571429,13.6616327 Z" id="Shape"></path>
        </g>
    </g>
</svg>